<?xml version="1.0" encoding="utf-8"?>
<svg version="1.1" viewBox="1.484 1.385 357.33 106.916" width="357.33px" height="106.92px" xmlns="http://www.w3.org/2000/svg">
  <g id="surface2" transform="matrix(1.156177, 0, 0, 1.156177, -109.139503, -90.938797)" data-tpl_matrix="1,0,0,1,0,20">
    <path style="stroke:none;fill-rule:evenodd;fill:rgb(53.333333%,74.509804%,40.000000%);fill-opacity:1" d="M 150.648438 157.699219 C 128.984375 153.000000 116.949219 146.832031 114.550781 139.199219 C 112.117188 131.601562 119.398438 124.000000 136.398438 116.398438 C 113.632812 124.398438 102.535156 132.683594 103.101562 141.250000 C 103.699219 149.785156 115.882812 156.667969 139.648438 161.898438 C 155.882812 165.132812 174.199219 166.851562 194.601562 167.050781 C 215.035156 167.250000 235.367188 166.050781 255.601562 163.449219 C 275.832031 160.816406 293.816406 156.933594 309.550781 151.800781 C 313.785156 150.398438 317.617188 148.949219 321.050781 147.449219 C 320.882812 147.515625 320.714844 147.566406 320.550781 147.601562 C 304.816406 152.765625 286.832031 156.648438 266.601562 159.250000 C 246.332031 161.851562 226.000000 163.066406 205.601562 162.898438 C 185.199219 162.699219 166.882812 160.964844 150.648438 157.699219 "/>
    <path style="stroke:none;fill-rule:evenodd;fill:rgb(53.333333%,74.509804%,40.000000%);fill-opacity:1" d="M 348.851562 91.648438 C 326.617188 87.214844 301.500000 84.867188 273.500000 84.601562 C 245.535156 84.332031 217.683594 85.984375 189.949219 89.550781 C 162.183594 93.117188 137.535156 98.417969 116.000000 105.449219 C 111.000000 107.148438 106.417969 108.867188 102.250000 110.601562 C 103.148438 110.265625 104.066406 109.949219 105.000000 109.648438 C 126.535156 102.617188 151.183594 97.300781 178.949219 93.699219 C 206.683594 90.132812 234.550781 88.484375 262.550781 88.750000 C 290.515625 89.015625 315.617188 91.367188 337.851562 95.800781 C 367.882812 102.332031 384.382812 110.917969 387.351562 121.550781 C 390.351562 132.183594 379.699219 142.750000 355.398438 153.250000 C 385.500000 142.351562 399.964844 131.117188 398.800781 119.550781 C 397.632812 107.984375 380.984375 98.683594 348.851562 91.648438 "/>
  </g>
  <g id="surface4" transform="matrix(1, 0, 0, 1, -51.095242, -89.416672)">
    <text style="fill: rgb(59, 40, 110); white-space: pre;" font-family="Palermo" font-size="50" transform="matrix(1,0,0,1,118.25,157.5)">BC Builder</text>
  </g>
</svg>